[
    {
        "title" : "POOaksdasa",
        "description" : "Primera sesion para aprender POO",
        "weeks" : 7,
        "enroll_cost" : 1500,
        "minimum_skill" : "intermediate",
        "bootcamp_id" : 2     
    }
]